asttokens==2.0.5
backcall==0.2.0
black==22.1.0
click==8.0.4
decorator==5.1.1
executing==0.8.2
Flask==2.0.3
Flask-WTF==1.0.0
ipython==8.0.1
itsdangerous==2.1.0
jedi==0.18.1
Jinja2==3.0.3
MarkupSafe==2.1.0
matplotlib-inline==0.1.3
mypy-extensions==0.4.3
parso==0.8.3
pathspec==0.9.0
pexpect==4.8.0
pickleshare==0.7.5
platformdirs==2.5.1
prompt-toolkit==3.0.28
ptyprocess==0.7.0
pure-eval==0.2.2
Pygments==2.11.2
six==1.16.0
stack-data==0.2.0
tinydb==4.7.0
tomli==2.0.1
traitlets==5.1.1
typing-extensions==4.1.1
wcwidth==0.2.5
Werkzeug==2.0.3
WTForms==3.0.1
